…
Parsed with column specification:
cols(
  Unique_Keys = col_character(),
  Name = col_character(),
  Set = col_character(),
  Rarity = col_character(),
  Todays_TCG = col_double(),
  Yesterday_TCG = col_double(),
  Week_Ago_TCG = col_double(),
  Month_Ago_TCG = col_double(),
  Yesterday_TCG_Chg = col_double(),
  Week_Ago_TCG_Chg = col_double(),
  Month_Ago_TCG_Chg = col_double()
)
# A tibble: 6,194 x 11
   Unique_Keys Name  Set   Rarity Todays_Sellers Yesterday_Selle…
   <chr>       <chr> <chr> <chr>           <dbl>            <dbl>
 1 Higure, th… Higu… Betr… R                 130              128
 2 Xyris, the… Xyri… Comm… M                 214              209
 3 Alela, Art… Alel… Thro… M                 299              296
 4 Chulane, T… Chul… Thro… M                 237              234
 5 Phyrexian … Phyr… Mira… R                  82               80
 6 Lich Lord … Lich… Alar… R                 184              183
 7 Eldrazi Te… Eldr… Rise… R                 131              126
 8 Wooded Foo… Wood… Onsl… R                  53               57
 9 Cascade Bl… Casc… Even… R                  81               77
10 Ukkima, St… Ukki… Comm… M                 191              189
# … with 6,184 more rows, and 5 more variables: Week_Ago_Sellers <dbl>,
#   Month_Ago_Sellers <dbl>, Yesterday_Sellers_Chg <dbl>,
#   Week_Ago_Sellers_Chg <dbl>, Month_Ago_Sellers_Chg <dbl>
…
Parsed with column specification:
cols(
  Unique_Keys = col_character(),
  Name = col_character(),
  Set = col_character(),
  Rarity = col_character(),
  Todays_TCG = col_double(),
  Yesterday_TCG = col_double(),
  Week_Ago_TCG = col_double(),
  Month_Ago_TCG = col_double(),
  Yesterday_TCG_Chg = col_double(),
  Week_Ago_TCG_Chg = col_double(),
  Month_Ago_TCG_Chg = col_double()
)
# A tibble: 6,220 x 11
   Unique_Keys Name  Set   Rarity Todays_Sellers Yesterday_Selle…
   <chr>       <chr> <chr> <chr>           <dbl>            <dbl>
 1 Wooded Foo… Wood… Onsl… R                  52               53
 2 Khalni Hyd… Khal… Rise… M                  22               22
 3 Alela, Art… Alel… Thro… M                 294              299
 4 UrborgLege… Urbo… Lege… U                 116              115
 5 Chulane, T… Chul… Thro… M                 242              237
 6 Eldrazi Te… Eldr… Rise… R                 130              131
 7 Lich Lord … Lich… Alar… R                 181              184
 8 Stonehoof … Ston… Comm… R                  75               82
 9 Lotus Vale… Lotu… Weat… R                 183              182
10 Godless Sh… Godl… Ravn… R                 211              206
# … with 6,210 more rows, and 5 more variables: Week_Ago_Sellers <dbl>,
#   Month_Ago_Sellers <dbl>, Yesterday_Sellers_Chg <dbl>,
#   Week_Ago_Sellers_Chg <dbl>, Month_Ago_Sellers_Chg <dbl>
…
Parsed with column specification:
cols(
  Unique_Keys = col_character(),
  Name = col_character(),
  Set = col_character(),
  Rarity = col_character(),
  Todays_TCG = col_double(),
  Yesterday_TCG = col_double(),
  Week_Ago_TCG = col_double(),
  Month_Ago_TCG = col_double(),
  Yesterday_TCG_Chg = col_double(),
  Week_Ago_TCG_Chg = col_double(),
  Month_Ago_TCG_Chg = col_double()
)
# A tibble: 6,199 x 11
   Unique_Keys Name  Set   Rarity Todays_Sellers Yesterday_Selle…
   <chr>       <chr> <chr> <chr>           <dbl>            <dbl>
 1 Rugged Pra… Rugg… Even… R                  93               91
 2 Higure, th… Higu… Betr… R                 124              132
 3 Fetid Heat… Feti… Even… R                  80               80
 4 Khalni Hyd… Khal… Rise… M                  26               22
 5 Chulane, T… Chul… Thro… M                 235              242
 6 Wooded Foo… Wood… Onsl… R                  51               52
 7 UrborgLege… Urbo… Lege… U                 113              116
 8 Alela, Art… Alel… Thro… M                 299              294
 9 Phyrexian … Phyr… Mira… R                  90               85
10 Titania, P… Tita… Comm… M                  92               94
# … with 6,189 more rows, and 5 more variables: Week_Ago_Sellers <dbl>,
#   Month_Ago_Sellers <dbl>, Yesterday_Sellers_Chg <dbl>,
#   Week_Ago_Sellers_Chg <dbl>, Month_Ago_Sellers_Chg <dbl>
…
Parsed with column specification:
cols(
  Unique_Keys = col_character(),
  Name = col_character(),
  Set = col_character(),
  Rarity = col_character(),
  Todays_TCG = col_double(),
  Yesterday_TCG = col_double(),
  Week_Ago_TCG = col_double(),
  Month_Ago_TCG = col_double(),
  Yesterday_TCG_Chg = col_double(),
  Week_Ago_TCG_Chg = col_double(),
  Month_Ago_TCG_Chg = col_double()
)
# A tibble: 6,207 x 11
   Unique_Keys Name  Set   Rarity Todays_Sellers Yesterday_Selle…
   <chr>       <chr> <chr> <chr>           <dbl>            <dbl>
 1 Chulane, T… Chul… Thro… M                 237              235
 2 Rugged Pra… Rugg… Even… R                  90               93
 3 Alela, Art… Alel… Thro… M                 298              299
 4 Eldrazi Te… Eldr… Rise… R                 130              132
 5 Khalni Hyd… Khal… Rise… M                  25               26
 6 Admonition… Admo… Worl… M                  88               88
 7 Higure, th… Higu… Betr… R                 128              124
 8 Wooded Foo… Wood… Onsl… R                  49               51
 9 Merciless … Merc… Comm… R                  60               61
10 Bane of Pr… Bane… Comm… R                  28               28
# … with 6,197 more rows, and 5 more variables: Week_Ago_Sellers <dbl>,
#   Month_Ago_Sellers <dbl>, Yesterday_Sellers_Chg <dbl>,
#   Week_Ago_Sellers_Chg <dbl>, Month_Ago_Sellers_Chg <dbl>
…
Parsed with column specification:
cols(
  Unique_Keys = col_character(),
  Name = col_character(),
  Set = col_character(),
  Rarity = col_character(),
  Todays_TCG = col_double(),
  Yesterday_TCG = col_double(),
  Week_Ago_TCG = col_double(),
  Month_Ago_TCG = col_double(),
  Yesterday_TCG_Chg = col_double(),
  Week_Ago_TCG_Chg = col_double(),
  Month_Ago_TCG_Chg = col_double()
)
# A tibble: 6,189 x 11
   Unique_Keys Name  Set   Rarity Todays_Sellers Yesterday_Selle…
   <chr>       <chr> <chr> <chr>           <dbl>            <dbl>
 1 Chulane, T… Chul… Thro… M                 233              237
 2 Alela, Art… Alel… Thro… M                 298              298
 3 Rugged Pra… Rugg… Even… R                  90               90
 4 Eldrazi Te… Eldr… Rise… R                 129              130
 5 Higure, th… Higu… Betr… R                 125              128
 6 Fetid Heat… Feti… Even… R                  82               79
 7 Admonition… Admo… Worl… M                  86               88
 8 Lich Lord … Lich… Alar… R                 187              189
 9 Korvold, F… Korv… Thro… M                 195              191
10 Scalding T… Scal… Zend… R                 101              102
# … with 6,179 more rows, and 5 more variables: Week_Ago_Sellers <dbl>,
#   Month_Ago_Sellers <dbl>, Yesterday_Sellers_Chg <dbl>,
#   Week_Ago_Sellers_Chg <dbl>, Month_Ago_Sellers_Chg <dbl>
…
Parsed with column specification:
cols(
  Unique_Keys = col_character(),
  Name = col_character(),
  Set = col_character(),
  Rarity = col_character(),
  Todays_TCG = col_double(),
  Yesterday_TCG = col_double(),
  Week_Ago_TCG = col_double(),
  Month_Ago_TCG = col_double(),
  Yesterday_TCG_Chg = col_double(),
  Week_Ago_TCG_Chg = col_double(),
  Month_Ago_TCG_Chg = col_double()
)
# A tibble: 6,213 x 11
   Unique_Keys Name  Set   Rarity Todays_Sellers Yesterday_Selle…
   <chr>       <chr> <chr> <chr>           <dbl>            <dbl>
 1 Chulane, T… Chul… Thro… M                 237              233
 2 Eldrazi Te… Eldr… Rise… R                 132              129
 3 Rugged Pra… Rugg… Even… R                  87               90
 4 Alela, Art… Alel… Thro… M                 300              298
 5 Higure, th… Higu… Betr… R                 126              125
 6 Admonition… Admo… Worl… M                  84               86
 7 Lich Lord … Lich… Alar… R                 187              187
 8 Fetid Heat… Feti… Even… R                  86               82
 9 Scalding T… Scal… Zend… R                 103              101
10 Titania, P… Tita… Comm… M                  84               95
# … with 6,203 more rows, and 5 more variables: Week_Ago_Sellers <dbl>,
#   Month_Ago_Sellers <dbl>, Yesterday_Sellers_Chg <dbl>,
#   Week_Ago_Sellers_Chg <dbl>, Month_Ago_Sellers_Chg <dbl>
…
Parsed with column specification:
cols(
  Unique_Keys = col_character(),
  Name = col_character(),
  Set = col_character(),
  Rarity = col_character(),
  Todays_TCG = col_double(),
  Yesterday_TCG = col_double(),
  Week_Ago_TCG = col_double(),
  Month_Ago_TCG = col_double(),
  Yesterday_TCG_Chg = col_double(),
  Week_Ago_TCG_Chg = col_double(),
  Month_Ago_TCG_Chg = col_double()
)
# A tibble: 6,278 x 11
   Unique_Keys Name  Set   Rarity Todays_Sellers Yesterday_Selle…
   <chr>       <chr> <chr> <chr>           <dbl>            <dbl>
 1 Ethereal F… Ethe… Comm… R                 112              155
 2 Chulane, T… Chul… Thro… M                 237              237
 3 Rugged Pra… Rugg… Even… R                  86               87
 4 Alela, Art… Alel… Thro… M                 304              300
 5 Eldrazi Te… Eldr… Rise… R                 123              132
 6 Stonehoof … Ston… Comm… R                  67               71
 7 Higure, th… Higu… Betr… R                 122              126
 8 Khalni Hyd… Khal… Rise… M                  26               25
 9 Admonition… Admo… Worl… M                  81               84
10 Lich Lord … Lich… Alar… R                 190              187
# … with 6,268 more rows, and 5 more variables: Week_Ago_Sellers <dbl>,
#   Month_Ago_Sellers <dbl>, Yesterday_Sellers_Chg <dbl>,
#   Week_Ago_Sellers_Chg <dbl>, Month_Ago_Sellers_Chg <dbl>
…
Parsed with column specification:
cols(
  Unique_Keys = col_character(),
  Name = col_character(),
  Set = col_character(),
  Rarity = col_character(),
  Todays_TCG = col_double(),
  Yesterday_TCG = col_double(),
  Week_Ago_TCG = col_double(),
  Month_Ago_TCG = col_double(),
  Yesterday_TCG_Chg = col_double(),
  Week_Ago_TCG_Chg = col_double(),
  Month_Ago_TCG_Chg = col_double()
)
# A tibble: 6,278 x 11
   Unique_Keys Name  Set   Rarity Todays_Sellers Yesterday_Selle…
   <chr>       <chr> <chr> <chr>           <dbl>            <dbl>
 1 Ethereal F… Ethe… Comm… R                 109              112
 2 Chulane, T… Chul… Thro… M                 249              237
 3 Rugged Pra… Rugg… Even… R                  87               86
 4 Alela, Art… Alel… Thro… M                 306              304
 5 Eldrazi Te… Eldr… Rise… R                 130              123
 6 Korvold, F… Korv… Thro… M                 191              191
 7 Khalni Hyd… Khal… Rise… M                  24               26
 8 Admonition… Admo… Worl… M                  82               81
 9 Lich Lord … Lich… Alar… R                 188              190
10 UrborgLege… Urbo… Lege… U                 113              112
# … with 6,268 more rows, and 5 more variables: Week_Ago_Sellers <dbl>,
#   Month_Ago_Sellers <dbl>, Yesterday_Sellers_Chg <dbl>,
#   Week_Ago_Sellers_Chg <dbl>, Month_Ago_Sellers_Chg <dbl>
…
Parsed with column specification:
cols(
  Unique_Keys = col_character(),
  Name = col_character(),
  Set = col_character(),
  Rarity = col_character(),
  Todays_TCG = col_double(),
  Yesterday_TCG = col_double(),
  Week_Ago_TCG = col_double(),
  Month_Ago_TCG = col_double(),
  Yesterday_TCG_Chg = col_double(),
  Week_Ago_TCG_Chg = col_double(),
  Month_Ago_TCG_Chg = col_double()
)
# A tibble: 6,312 x 11
   Unique_Keys Name  Set   Rarity Todays_Sellers Yesterday_Selle…
   <chr>       <chr> <chr> <chr>           <dbl>            <dbl>
 1 Chulane, T… Chul… Thro… M                 249              249
 2 Alela, Art… Alel… Thro… M                 308              306
 3 Dragonlord… Drag… Drag… M                  86               90
 4 Korvold, F… Korv… Thro… M                 196              191
 5 Rugged Pra… Rugg… Even… R                  79               87
 6 Lich Lord … Lich… Alar… R                 184              188
 7 Admonition… Admo… Worl… M                  76               82
 8 Titania, P… Tita… Comm… M                  91               89
 9 UrborgLege… Urbo… Lege… U                 113              113
10 Twilight M… Twil… Even… R                  75               71
# … with 6,302 more rows, and 5 more variables: Week_Ago_Sellers <dbl>,
#   Month_Ago_Sellers <dbl>, Yesterday_Sellers_Chg <dbl>,
#   Week_Ago_Sellers_Chg <dbl>, Month_Ago_Sellers_Chg <dbl>
…
Parsed with column specification:
cols(
  Unique_Keys = col_character(),
  Name = col_character(),
  Set = col_character(),
  Rarity = col_character(),
  Todays_TCG = col_double(),
  Yesterday_TCG = col_double(),
  Week_Ago_TCG = col_double(),
  Month_Ago_TCG = col_double(),
  Yesterday_TCG_Chg = col_double(),
  Week_Ago_TCG_Chg = col_double(),
  Month_Ago_TCG_Chg = col_double()
)
# A tibble: 6,341 x 11
   Unique_Keys Name  Set   Rarity Todays_Sellers Yesterday_Selle…
   <chr>       <chr> <chr> <chr>           <dbl>            <dbl>
 1 Chulane, T… Chul… Thro… M                 242              249
 2 Alela, Art… Alel… Thro… M                 305              308
 3 Dragonlord… Drag… Drag… M                  79               86
 4 Korvold, F… Korv… Thro… M                 197              196
 5 Rugged Pra… Rugg… Even… R                  80               79
 6 Time WarpT… Time… Temp… R                  73               73
 7 Khalni Hyd… Khal… Rise… M                  30               26
 8 Lich Lord … Lich… Alar… R                 183              184
 9 Admonition… Admo… Worl… M                  78               76
10 UrborgLege… Urbo… Lege… U                 110              113
# … with 6,331 more rows, and 5 more variables: Week_Ago_Sellers <dbl>,
#   Month_Ago_Sellers <dbl>, Yesterday_Sellers_Chg <dbl>,
#   Week_Ago_Sellers_Chg <dbl>, Month_Ago_Sellers_Chg <dbl>
…
Parsed with column specification:
cols(
  Unique_Keys = col_character(),
  Name = col_character(),
  Set = col_character(),
  Rarity = col_character(),
  Todays_TCG = col_double(),
  Yesterday_TCG = col_double(),
  Week_Ago_TCG = col_double(),
  Month_Ago_TCG = col_double(),
  Yesterday_TCG_Chg = col_double(),
  Week_Ago_TCG_Chg = col_double(),
  Month_Ago_TCG_Chg = col_double()
)
# A tibble: 6,332 x 11
   Unique_Keys Name  Set   Rarity Todays_Sellers Yesterday_Selle…
   <chr>       <chr> <chr> <chr>           <dbl>            <dbl>
 1 Chulane, T… Chul… Thro… M                 242              242
 2 Alela, Art… Alel… Thro… M                 304              305
 3 Korvold, F… Korv… Thro… M                 206              197
 4 Dragonlord… Drag… Drag… M                  85               79
 5 Kalitas, B… Kali… Zend… M                 151              153
 6 Rugged Pra… Rugg… Even… R                  78               80
 7 Kelsien, t… Kels… Comm… M                 204              198
 8 Admonition… Admo… Worl… M                  77               78
 9 Khalni Hyd… Khal… Rise… M                  27               30
10 Garruk, Un… Garr… Core… M                 269              269
# … with 6,322 more rows, and 5 more variables: Week_Ago_Sellers <dbl>,
#   Month_Ago_Sellers <dbl>, Yesterday_Sellers_Chg <dbl>,
#   Week_Ago_Sellers_Chg <dbl>, Month_Ago_Sellers_Chg <dbl>
…
Parsed with column specification:
cols(
  Unique_Keys = col_character(),
  Name = col_character(),
  Set = col_character(),
  Rarity = col_character(),
  Todays_TCG = col_double(),
  Yesterday_TCG = col_double(),
  Week_Ago_TCG = col_double(),
  Month_Ago_TCG = col_double(),
  Yesterday_TCG_Chg = col_double(),
  Week_Ago_TCG_Chg = col_double(),
  Month_Ago_TCG_Chg = col_double()
)
# A tibble: 6,379 x 11
   Unique_Keys Name  Set   Rarity Todays_Sellers Yesterday_Selle…
   <chr>       <chr> <chr> <chr>           <dbl>            <dbl>
 1 Chulane, T… Chul… Thro… M                 244              242
 2 Alela, Art… Alel… Thro… M                 309              304
 3 Korvold, F… Korv… Thro… M                 205              206
 4 Dragonlord… Drag… Drag… M                  87               85
 5 Rugged Pra… Rugg… Even… R                  81               78
 6 Kelsien, t… Kels… Comm… M                 204              204
 7 Kalitas, B… Kali… Zend… M                 156              151
 8 Garruk, Un… Garr… Core… M                 269              269
 9 Admonition… Admo… Worl… M                  80               77
10 Khalni Hyd… Khal… Rise… M                  27               27
# … with 6,369 more rows, and 5 more variables: Week_Ago_Sellers <dbl>,
#   Month_Ago_Sellers <dbl>, Yesterday_Sellers_Chg <dbl>,
#   Week_Ago_Sellers_Chg <dbl>, Month_Ago_Sellers_Chg <dbl>
…
Parsed with column specification:
cols(
  Unique_Keys = col_character(),
  Name = col_character(),
  Set = col_character(),
  Rarity = col_character(),
  Todays_TCG = col_double(),
  Yesterday_TCG = col_double(),
  Week_Ago_TCG = col_double(),
  Month_Ago_TCG = col_double(),
  Yesterday_TCG_Chg = col_double(),
  Week_Ago_TCG_Chg = col_double(),
  Month_Ago_TCG_Chg = col_double()
)
# A tibble: 6,403 x 11
   Unique_Keys Name  Set   Rarity Todays_Sellers Yesterday_Selle…
   <chr>       <chr> <chr> <chr>           <dbl>            <dbl>
 1 Chulane, T… Chul… Thro… M                 238              244
 2 Vito, Thor… Vito… Core… R                 373              379
 3 Rugged Pra… Rugg… Even… R                  82               81
 4 Otrimi, th… Otri… Comm… M                 194              195
 5 Alela, Art… Alel… Thro… M                 306              309
 6 Korvold, F… Korv… Thro… M                 211              205
 7 Dragonlord… Drag… Drag… M                  84               87
 8 Garruk, Un… Garr… Core… M                 271              269
 9 Khalni Hyd… Khal… Rise… M                  27               27
10 Titania, P… Tita… Comm… M                  93               92
# … with 6,393 more rows, and 5 more variables: Week_Ago_Sellers <dbl>,
#   Month_Ago_Sellers <dbl>, Yesterday_Sellers_Chg <dbl>,
#   Week_Ago_Sellers_Chg <dbl>, Month_Ago_Sellers_Chg <dbl>
…
Parsed with column specification:
cols(
  Unique_Keys = col_character(),
  Name = col_character(),
  Set = col_character(),
  Rarity = col_character(),
  Todays_TCG = col_double(),
  Yesterday_TCG = col_double(),
  Week_Ago_TCG = col_double(),
  Month_Ago_TCG = col_double(),
  Yesterday_TCG_Chg = col_double(),
  Week_Ago_TCG_Chg = col_double(),
  Month_Ago_TCG_Chg = col_double()
)
# A tibble: 6,402 x 11
   Unique_Keys Name  Set   Rarity Todays_Sellers Yesterday_Selle…
   <chr>       <chr> <chr> <chr>           <dbl>            <dbl>
 1 Chulane, T… Chul… Thro… M                 241              238
 2 Alela, Art… Alel… Thro… M                 310              306
 3 Korvold, F… Korv… Thro… M                 213              211
 4 Rugged Pra… Rugg… Even… R                  84               82
 5 Vito, Thor… Vito… Core… R                 378              373
 6 Retrofitte… Retr… Comm… R                  73              111
 7 Goblin Wiz… Gobl… The … R                  64               66
 8 Khalni Hyd… Khal… Rise… M                  31               27
 9 Titania, P… Tita… Comm… M                  99               93
10 Garruk, Un… Garr… Core… M                 277              271
# … with 6,392 more rows, and 5 more variables: Week_Ago_Sellers <dbl>,
#   Month_Ago_Sellers <dbl>, Yesterday_Sellers_Chg <dbl>,
#   Week_Ago_Sellers_Chg <dbl>, Month_Ago_Sellers_Chg <dbl>
…
